Name,Order,AggMethod,Key
TotalLocMaxProdMaxWk,1,max,time
TotalLocMaxProdMaxWk,2,max,product
TotalLocMaxProdMaxWk,3,total,location
TotalWkProdLoc,1,total,time
TotalWkProdLoc,2,max,product
TotalWkProdLoc,3,max,location
TotLocTotProdFstWk,1,first,time
TotLocTotProdFstWk,2,total,product
TotLocTotProdFstWk,3,total,location
TotLocTotProdLstWk,1,last,time
TotLocTotProdLstWk,2,total,product
TotLocTotProdLstWk,3,total,location
